Announcing ‘Just Three Things’ – Credibly Curious
…
## ── Conflicts ─────────────── tidyverse_conflicts() ──
## ✖ dplyr::filter() masks stats::filter()
## ✖ dplyr::lag()    masks stats::lag()

library(ozbabynames)

So here we’ve got name, sex, year, count, and state.

ozbabynames

## # A tibble: 179,683 x 5
##    name      sex     year count state          
##    <chr>     <chr>  <int> <int> <chr>          
##  1 Charlotte Female  2017   577 New South Wales
##  2 Olivia    Female  2017   550 New South Wales
##  3 Ava       Female  2017   464 New South Wales
##  4 Amelia    Female  2017   442 New South Wales
##  5 Mia       Female  2017   418 New South Wales
##  6 Isla      Female  2017   392 New South Wales
##  7 Chloe     Female  2017   378 New South Wales
##  8 Grace     Female  2017   353 New South Wales
##  9 Ella      Female  2017   351 New South Wales
## 10 Zoe       Female  2017   339 New South Wales
## # … with 179,673 more rows
…
