Explore longitudinal data with brolgar – Credibly Curious
…
So in the heights data, we have the following setup:

heights <- as_tsibble(x = heights,
                      key = countries,
                      index = year,
                      regular = FALSE)

Here as_tsibble() takes heights, and a key (countries), and index (year), and we state the regular = FALSE (since there are not regular time periods between measurements).

This creates a tsibble object - a powerful data abstraction for time series data, made available in the tsibble package by Earo Wang:

heights

## # A tsibble: 1,499 x 4 [!]
## # Key:       country [153]
##    country      year height_cm continent
##    <chr>       <dbl>     <dbl> <chr>    
##  1 Afghanistan  1870      168. Asia     
##  2 Afghanistan  1880      166. Asia     
##  3 Afghanistan  1930      167. Asia     
##  4 Afghanistan  1990      167. Asia     
##  5 Afghanistan  2000      161. Asia     
##  6 Albania      1880      170. Europe   
##  7 Albania      1890      170. Europe   
##  8 Albania      1900      169. Europe   
##  9 Albania      2000      168. Europe   
## 10 Algeria      1910      169. Africa   
## # … with 1,489 more rows
…
Idea 2: An opportunity to explore individuals, with various tools, and maintain information about the whole. We are more than our average.

To get a sense of what your data is, you can sometimes get something out of looking at a small sample. We’ve got some really neat tools for that.

Sample with sample_n_keys()

In dplyr, you can use sample_n() to sample n observations. Similarly, with brolgar, you can take a random sample of n keys using sample_n_keys(), or take a fraction (just as in dplyr::sample_frac()), using sample_frac_keys(), which samples a fraction of available keys.

So you could sample three keys like so:

# seed set for reproducibility
set.seed(2019-08-07)
sample_n_keys(heights, size = 3)

## # A tsibble: 21 x 4 [!]
## # Key:       country [3]
##    country     year height_cm continent
##    <chr>      <dbl>     <dbl> <chr>    
##  1 Bangladesh  1850      162. Asia     
##  2 Bangladesh  1860      162. Asia     
##  3 Bangladesh  1870      164. Asia     
##  4 Bangladesh  1880      162. Asia     
##  5 Bangladesh  1950      162. Asia     
##  6 Bangladesh  1960      162. Asia     
##  7 Bangladesh  1980      162. Asia     
##  8 Bangladesh  1990      160. Asia     
##  9 Bangladesh  2000      163. Asia     
## 10 Jamaica     1890      170. Americas 
## # … with 11 more rows
…
OK so now we can see that for this small sample, it looks like they heights are generally increasing over time, but there is some pretty massive fluctuation as well!

Filtering observations by number of observations

You can calculate the number of observations for each key with add_n_obs():

add_n_obs(heights)

## # A tsibble: 1,499 x 5 [!]
## # Key:       country [153]
##    country      year n_obs height_cm continent
##    <chr>       <dbl> <int>     <dbl> <chr>    
##  1 Afghanistan  1870     5      168. Asia     
##  2 Afghanistan  1880     5      166. Asia     
##  3 Afghanistan  1930     5      167. Asia     
##  4 Afghanistan  1990     5      167. Asia     
##  5 Afghanistan  2000     5      161. Asia     
##  6 Albania      1880     4      170. Europe   
##  7 Albania      1890     4      170. Europe   
##  8 Albania      1900     4      169. Europe   
##  9 Albania      2000     4      168. Europe   
## 10 Algeria      1910     5      169. Africa   
## # … with 1,489 more rows
…
join this series back to the regular data.

Step 1. Quantify what is interesting

What is an interesting summary of your individuals? Is it the minimum value for each series? The maximum? Or maybe you want to know which countries are always increasing or decreasing?

Step 2. Reduce to one-row summary of features with features()

You can extract features() of longitudinal data using the features() function, from fabletools. We were interested in those countries that were always increasing or decreasing. This property is otherwise known as monotonicity, and can be calculated like so:

heights %>%
  features(height_cm, feat_monotonic)

## # A tibble: 153 x 5
##    country     increase decrease unvary monotonic
##    <chr>       <lgl>    <lgl>    <lgl>  <lgl>    
##  1 Afghanistan FALSE    FALSE    FALSE  FALSE    
##  2 Albania     FALSE    TRUE     FALSE  TRUE     
##  3 Algeria     FALSE    FALSE    FALSE  FALSE    
##  4 Angola      FALSE    FALSE    FALSE  FALSE    
##  5 Argentina   FALSE    FALSE    FALSE  FALSE    
##  6 Armenia     FALSE    FALSE    FALSE  FALSE    
##  7 Australia   FALSE    FALSE    FALSE  FALSE    
##  8 Austria     FALSE    FALSE    FALSE  FALSE    
##  9 Azerbaijan  FALSE    FALSE    FALSE  FALSE    
## 10 Bahrain     TRUE     FALSE    FALSE  TRUE     
## # … with 143 more rows
…
You can read more about creating your own features in the vignette finding features.

Step 3. Joining individuals back to the data

You can join these features back to the data with a left_join, like so:

library(dplyr)
heights_mono <- heights %>%
  features(height_cm, feat_monotonic) %>%
  left_join(heights, by = "country")

heights_mono

## # A tibble: 1,499 x 8
##    country     increase decrease unvary monotonic  year height_cm continent
##    <chr>       <lgl>    <lgl>    <lgl>  <lgl>     <dbl>     <dbl> <chr>    
##  1 Afghanistan FALSE    FALSE    FALSE  FALSE      1870      168. Asia     
##  2 Afghanistan FALSE    FALSE    FALSE  FALSE      1880      166. Asia     
##  3 Afghanistan FALSE    FALSE    FALSE  FALSE      1930      167. Asia     
##  4 Afghanistan FALSE    FALSE    FALSE  FALSE      1990      167. Asia     
##  5 Afghanistan FALSE    FALSE    FALSE  FALSE      2000      161. Asia     
##  6 Albania     FALSE    TRUE     FALSE  TRUE       1880      170. Europe   
##  7 Albania     FALSE    TRUE     FALSE  TRUE       1890      170. Europe   
##  8 Albania     FALSE    TRUE     FALSE  TRUE       1900      169. Europe   
##  9 Albania     FALSE    TRUE     FALSE  TRUE       2000      168. Europe   
## 10 Algeria     FALSE    FALSE    FALSE  FALSE      1910      169. Africa   
## # … with 1,489 more rows
…
Fit a linear model for each key using key_slope()

key_slope() returns the intercept and slope estimate for each key, given some linear model formula. We can get the number of observations, and slope information for each key to identify those changing over time.

height_slope <- key_slope(heights, height_cm ~ year)

height_slope

## # A tibble: 153 x 3
##    country     .intercept .slope_year
##    <chr>            <dbl>       <dbl>
##  1 Afghanistan      217.      -0.0263
##  2 Albania          202.      -0.0170
##  3 Algeria          111.       0.0297
##  4 Angola            43.9      0.0648
##  5 Argentina        147.       0.0117
##  6 Armenia           87.9      0.0419
##  7 Australia         46.1      0.0665
##  8 Austria           38.2      0.0695
##  9 Azerbaijan       150.       0.0111
## 10 Bahrain         -157.       0.165 
## # … with 143 more rows

Then join this back:

heights_slope <- heights %>%
  key_slope(height_cm ~ year) %>%
  left_join(heights, by = "country")

heights_slope

## # A tibble: 1,499 x 6
##    country     .intercept .slope_year  year height_cm continent
##    <chr>            <dbl>       <dbl> <dbl>     <dbl> <chr>    
##  1 Afghanistan       217.     -0.0263  1870      168. Asia     
##  2 Afghanistan       217.     -0.0263  1880      166. Asia     
##  3 Afghanistan       217.     -0.0263  1930      167. Asia     
##  4 Afghanistan       217.     -0.0263  1990      167. Asia     
##  5 Afghanistan       217.     -0.0263  2000      161. Asia     
##  6 Albania           202.     -0.0170  1880      170. Europe   
##  7 Albania           202.     -0.0170  1890      170. Europe   
##  8 Albania           202.     -0.0170  1900      169. Europe   
##  9 Albania           202.     -0.0170  2000      168. Europe   
## 10 Algeria           111.      0.0297  1910      169. Africa   
## # … with 1,489 more rows
…
