James Webb and the XKCD-inspired Wikipedia Scraping – Credibly Curious
…
We want to extend that fitted line ahead, so let’s fit a linear model to the data with plannedlaunch being predicted by year (which is what geom_smooth(method = "lm") does under the hood):

lm_jwebb <- lm(plannedlaunch ~ year, jwebb)

Then we use augment to predict some new data for 1997 through to 2030:

library(broom)
new_data <- tibble(year = 1997:2030)
jwebb_predict <- augment(lm_jwebb, newdata = new_data)
jwebb_predict

#> # A tibble: 34 x 2
#>     year .fitted
#>    <int>   <dbl>
#>  1  1997   2007.
#>  2  1998   2008.
#>  3  1999   2008.
#>  4  2000   2009.
#>  5  2001   2010.
#>  6  2002   2010.
#>  7  2003   2011.
#>  8  2004   2012.
#>  9  2005   2012.
#> 10  2006   2013.
#> # … with 24 more rows
…
