visdat Version 0.6.0 – Credibly Curious
…
Notably for vis_miss when using facetting, you don’t get column missingness summaries, as I couldn’t quite work out how to do this for each facet.

Thank you to Sam Firke’s initial tweet on this that inspired this, and Jonathan Zadra’s contributions in the issue thread.

The next release will implement facetting for vis_value(), vis_binary(), vis_compare(), vis_expect(), and vis_guess() - see #159 to keep track.

Data methods for plotting

Related to facetting, I have implemented methods that provide data methods for plots with data_vis_dat(), data_vis_cor(), and data_vis_miss():

data_vis_dat(airquality)
#> # A tibble: 918 × 4
#>     rows variable valueType value
#>    <int> <chr>    <chr>     <chr>
#>  1     1 Day      integer   41   
#>  2     1 Month    integer   190  
#>  3     1 Ozone    integer   7.4  
#>  4     1 Solar.R  integer   67   
#>  5     1 Temp     integer   5    
#>  6     1 Wind     numeric   1    
#>  7     2 Day      integer   36   
#>  8     2 Month    integer   118  
#>  9     2 Ozone    integer   8    
#> 10     2 Solar.R  integer   72   
#> # … with 908 more rows

data_vis_miss(airquality)
#> # A tibble: 918 × 4
#>     rows variable valueType value
#>    <int> <chr>    <chr>     <chr>
#>  1     1 Day      FALSE     FALSE
#>  2     1 Month    FALSE     FALSE
#>  3     1 Ozone    FALSE     FALSE
#>  4     1 Solar.R  FALSE     FALSE
#>  5     1 Temp     FALSE     FALSE
#>  6     1 Wind     FALSE     FALSE
#>  7     2 Day      FALSE     FALSE
#>  8     2 Month    FALSE     FALSE
#>  9     2 Ozone    FALSE     FALSE
#> 10     2 Solar.R  FALSE     FALSE
#> # … with 908 more rows

data_vis_cor(airquality)
#> # A tibble: 36 × 3
#>    row_1   row_2     value
#>    <chr>   <chr>     <dbl>
#>  1 Ozone   Ozone    1     
#>  2 Ozone   Solar.R  0.348 
#>  3 Ozone   Wind    -0.602 
#>  4 Ozone   Temp     0.698 
#>  5 Ozone   Month    0.165 
#>  6 Ozone   Day     -0.0132
#>  7 Solar.R Ozone    0.348 
#>  8 Solar.R Solar.R  1     
#>  9 Solar.R Wind    -0.0568
#> 10 Solar.R Temp     0.276 
#> # … with 26 more rows

The implementation of this works by providing these functions as S3 methods that have a .grouped_df method to facilitate plotting with facets.

airquality %>% group_by(Month) %>% data_vis_dat()
#> # A tibble: 765 × 5
#> # Groups:   Month [5]
#>    Month  rows variable valueType value
#>    <int> <int> <chr>    <chr>     <chr>
#>  1     5     1 Day      integer   41   
#>  2     5     1 Ozone    integer   190  
#>  3     5     1 Solar.R  integer   7.4  
#>  4     5     1 Temp     integer   67   
#>  5     5     1 Wind     numeric   1    
#>  6     5     2 Day      integer   36   
#>  7     5     2 Ozone    integer   118  
#>  8     5     2 Solar.R  integer   8    
#>  9     5     2 Temp     integer   72   
#> 10     5     2 Wind     numeric   2    
#> # … with 755 more rows

Missing values show up in list columns

vis_dat() vis_miss() and vis_guess() now render missing values in list-columns. Let’s demonstrate this with the star_wars dataset from dplyr, which has a few list columns.

starwars
#> # A tibble: 87 × 14
#>    name        height  mass hair_…¹ skin_…² eye_c…³ birth…⁴ sex   gender homew…⁵
#>    <chr>        <int> <dbl> <chr>   <chr>   <chr>     <dbl> <chr> <chr>  <chr>  
#>  1 Luke Skywa…    172    77 blond   fair    blue       19   male  mascu… Tatooi…
#>  2 C-3PO          167    75 NA      gold    yellow    112   none  mascu… Tatooi…
#>  3 R2-D2           96    32 NA      white,… red        33   none  mascu… Naboo  
#>  4 Darth Vader    202   136 none    white   yellow     41.9 male  mascu… Tatooi…
#>  5 Leia Organa    150    49 brown   light   brown      19   fema… femin… Aldera…
#>  6 Owen Lars      178   120 brown,… light   blue       52   male  mascu… Tatooi…
#>  7 Beru White…    165    75 brown   light   blue       47   fema… femin… Tatooi…
#>  8 R5-D4           97    32 NA      white,… red        NA   none  mascu… Tatooi…
#>  9 Biggs Dark…    183    84 black   light   brown      24   male  mascu… Tatooi…
#> 10 Obi-Wan Ke…    182    77 auburn… fair    blue-g…    57   male  mascu… Stewjon
#> # … with 77 more rows, 4 more variables: species <chr>, films <list>,
#> #   vehicles <list>, starships <list>, and abbreviated variable names
#> #   ¹​hair_color, ²​skin_color, ³​eye_color, ⁴​birth_year, ⁵​homeworld
…
Which also works with dplyr::group_by():

airquality %>% 
  group_by(Month) %>% 
  miss_var_summary()
#> # A tibble: 25 × 4
#> # Groups:   Month [5]
#>    Month variable n_miss pct_miss
#>    <int> <chr>     <int>    <dbl>
#>  1     5 Ozone         5     16.1
#>  2     5 Solar.R       4     12.9
#>  3     5 Wind          0      0  
#>  4     5 Temp          0      0  
#>  5     5 Day           0      0  
#>  6     6 Ozone        21     70  
#>  7     6 Solar.R       0      0  
#>  8     6 Wind          0      0  
#>  9     6 Temp          0      0  
#> 10     6 Day           0      0  
#> # … with 15 more rows
…
