Just Quickly: Removing Sawtooth Patterns in Line Graphs – Credibly Curious
…
So we see that there is still some sawtooth patterns going on. Let’s look at the data to see if there are other variables we are missing:

oz_kim
#> # A tibble: 164 x 5
#>    name  sex     year count state          
#>    <chr> <chr>  <int> <int> <chr>          
#>  1 Kim   Female  2017     2 South Australia
#>  2 Kim   Female  2016     1 South Australia
#>  3 Kim   Female  2015     1 South Australia
#>  4 Kim   Female  2014     2 South Australia
#>  5 Kim   Male    2014     1 South Australia
#>  6 Kim   Female  2012     1 South Australia
#>  7 Kim   Female  2011     3 South Australia
#>  8 Kim   Female  2010     1 South Australia
#>  9 Kim   Female  2009     1 South Australia
#> 10 Kim   Female  2008     3 South Australia
#> # … with 154 more rows
…
