Population Pyramid Plots in ggplot2 – Credibly Curious
…
This involves a few steps - first, we need to modify the data as we’ve done above. Let’s call this a prep_pop_pyramid function. First let’s scratch out what it will do.

So we need to get the data.

melb_syd <- two_abs_age_lga("Melbourne (C)", "Sydney (C)")

Then we need to multiply one of the populations by -1, so that we get the reflected population in the other direction. We had previously done:

melb_syd %>% 
  mutate(
    population = case_when(
      lga == "Sydney (C)" ~ -population,
      TRUE ~ population
    )
  )#> # A tibble: 36 × 4
#>    lga           lower.age.limit  year population
#>    <chr>                   <dbl> <dbl>      <dbl>
#>  1 Melbourne (C)               0  2020       4882
#>  2 Melbourne (C)               5  2020       3450
#>  3 Melbourne (C)              10  2020       2675
#>  4 Melbourne (C)              15  2020       9396
#>  5 Melbourne (C)              20  2020      38434
#>  6 Melbourne (C)              25  2020      38546
#>  7 Melbourne (C)              30  2020      25834
#>  8 Melbourne (C)              35  2020      15072
#>  9 Melbourne (C)              40  2020       8554
#> 10 Melbourne (C)              45  2020       6753
#> # … with 26 more rows

But this will not generalise to any two LGA names. So instead we can assign one of the LGAs to a number, which we can do by first grouping by lga, then using cur_group_id(), to label the groups as a number.

melb_syd %>% 
    group_by(lga) %>%
    mutate(
      age_multiplier = cur_group_id(),
      .after = lga
    )#> # A tibble: 36 × 5
#> # Groups:   lga [2]
#>    lga           age_multiplier lower.age.limit  year population
#>    <chr>                  <int>           <dbl> <dbl>      <dbl>
#>  1 Melbourne (C)              1               0  2020       4882
#>  2 Melbourne (C)              1               5  2020       3450
#>  3 Melbourne (C)              1              10  2020       2675
#>  4 Melbourne (C)              1              15  2020       9396
#>  5 Melbourne (C)              1              20  2020      38434
#>  6 Melbourne (C)              1              25  2020      38546
#>  7 Melbourne (C)              1              30  2020      25834
#>  8 Melbourne (C)              1              35  2020      15072
#>  9 Melbourne (C)              1              40  2020       8554
#> 10 Melbourne (C)              1              45  2020       6753
#> # … with 26 more rows

This then gives us a 1 or a 2. We can then set this to be negative if it is the second group.

melb_syd %>% 
    group_by(lga) %>%
    mutate(
      age_multiplier = cur_group_id(),
      age_multiplier = case_when(age_multiplier == 2 ~ 1,
                                 TRUE ~ -1),
      .after = lga
    ) #> # A tibble: 36 × 5
#> # Groups:   lga [2]
#>    lga           age_multiplier lower.age.limit  year population
#>    <chr>                  <dbl>           <dbl> <dbl>      <dbl>
#>  1 Melbourne (C)             -1               0  2020       4882
#>  2 Melbourne (C)             -1               5  2020       3450
#>  3 Melbourne (C)             -1              10  2020       2675
#>  4 Melbourne (C)             -1              15  2020       9396
#>  5 Melbourne (C)             -1              20  2020      38434
#>  6 Melbourne (C)             -1              25  2020      38546
#>  7 Melbourne (C)             -1              30  2020      25834
#>  8 Melbourne (C)             -1              35  2020      15072
#>  9 Melbourne (C)             -1              40  2020       8554
#> 10 Melbourne (C)             -1              45  2020       6753
#> # … with 26 more rows
…
