What if Australia’s vaccination rate is similar to our testing? – Credibly Curious
…
scales for making nicer plot scales and stuff

We scrape the data for tests in Australia, and extract the table

aus_test_url <- "https://covidlive.com.au/report/daily-tests/aus"

aus_test_data_raw <- bow(aus_test_url) %>% 
  scrape() %>% 
  html_table() %>% 
  purrr::pluck(2) %>% 
  as_tibble()

aus_test_data_raw
#> # A tibble: 386 x 4
#>    DATE      TESTS      VAR   NET   
#>    <chr>     <chr>      <lgl> <chr> 
#>  1 21 Mar 21 15,186,991 NA    34,669
#>  2 20 Mar 21 15,152,322 NA    36,037
#>  3 19 Mar 21 15,116,285 NA    44,082
#>  4 18 Mar 21 15,072,203 NA    50,496
#>  5 17 Mar 21 15,021,707 NA    54,260
#>  6 16 Mar 21 14,967,447 NA    33,843
#>  7 15 Mar 21 14,933,604 NA    32,312
#>  8 14 Mar 21 14,901,292 NA    29,392
#>  9 13 Mar 21 14,871,900 NA    36,989
#> 10 12 Mar 21 14,834,911 NA    45,015
#> # … with 376 more rows
…
aus_tests
#> # A tibble: 386 x 4
#>    date          tests var   daily_tests
#>    <date>        <dbl> <lgl>       <dbl>
#>  1 2021-03-21 15186991 NA          34669
#>  2 2021-03-20 15152322 NA          36037
#>  3 2021-03-19 15116285 NA          44082
#>  4 2021-03-18 15072203 NA          50496
#>  5 2021-03-17 15021707 NA          54260
#>  6 2021-03-16 14967447 NA          33843
#>  7 2021-03-15 14933604 NA          32312
#>  8 2021-03-14 14901292 NA          29392
#>  9 2021-03-13 14871900 NA          36989
#> 10 2021-03-12 14834911 NA          45015
#> # … with 376 more rows
…
Let’s calculate the maximum number of tests, and define 80% of Australia’s population.

max_tests <- max(aus_tests$daily_tests, na.rm = TRUE)
oz_pop_80_pct <- 0.8 * 25693059

With this new information we then create a new table with a column of the percentage of maximum tests. We want to create a 100 row table, where each row is a percentage of the maximum tests. We can then calculate the number of days until Australia reaches 80% vaccination by dividing the number of 80% of the population bt the propotion of max tests.

covid_days_until_vac <- tibble(pct_of_max_tests = (1:100)/100,
       max_tests = max_tests,
       prop_of_max_tests = max_tests * pct_of_max_tests,
       days_until_80_pct_aus_pop_vac = oz_pop_80_pct / prop_of_max_tests)

covid_days_until_vac
#> # A tibble: 100 x 4
#>    pct_of_max_tests max_tests prop_of_max_tests days_until_80_pct_aus_pop_vac
#>               <dbl>     <dbl>             <dbl>                         <dbl>
#>  1             0.01    136194             1362.                        15092.
#>  2             0.02    136194             2724.                         7546.
#>  3             0.03    136194             4086.                         5031.
#>  4             0.04    136194             5448.                         3773.
#>  5             0.05    136194             6810.                         3018.
#>  6             0.06    136194             8172.                         2515.
#>  7             0.07    136194             9534.                         2156.
#>  8             0.08    136194            10896.                         1887.
#>  9             0.09    136194            12257.                         1677.
#> 10             0.1     136194            13619.                         1509.
#> # … with 90 more rows
…
aus_test_data_raw <- bow(aus_vac_url) %>% 
  scrape() %>% 
  html_table() %>% 
  purrr::pluck(2) %>% 
  as_tibble() %>% 
  janitor::clean_names() %>% 
  mutate(date = strp_date(date)) %>% 
  mutate(net = stringr::str_replace_all(string = net, 
                                        pattern = "-", 
                                        replacement = "0")) %>% 
  mutate(across(c("cwealth", "doses", "net"), parse_number)) %>% 
  rename(daily_vacc = net)

aus_test_data_raw 
#> # A tibble: 35 x 5
#>    date       cwealth  doses var   daily_vacc
#>    <date>       <dbl>  <dbl> <lgl>      <dbl>
#>  1 2021-03-21   50000 256782 NA          2951
#>  2 2021-03-20   50000 253831 NA         13077
#>  3 2021-03-19   50000 240754 NA         14697
#>  4 2021-03-18   50000 226057 NA         22500
#>  5 2021-03-17   45607 203557 NA         21120
#>  6 2021-03-16   42800 182437 NA         17656
#>  7 2021-03-15   39760 164781 NA          2230
#>  8 2021-03-14   39760 162551 NA          3257
#>  9 2021-03-13   38934 159294 NA         24191
#> 10 2021-03-12   30000 135103 NA         10103
#> # … with 25 more rows
…
