Fancy Times and Scales with COVID data – Credibly Curious
…
This tells us we want the second list element, which is the data frame, and then make that a tibble for nice printing:

bow(vic_test_url) %>% 
  scrape() %>% 
  html_table() %>% 
  pluck(2) %>% 
  as_tibble()

#> # A tibble: 203 x 4
#>    DATE   CASES TESTS  POS   
#>    <chr>  <int> <chr>  <chr> 
#>  1 11 Oct    12 12,925 0.09 %
#>  2 10 Oct    12 16,647 0.07 %
#>  3 09 Oct    10 15,585 0.06 %
#>  4 08 Oct    10 15,298 0.07 %
#>  5 07 Oct     4 16,429 0.02 %
#>  6 06 Oct    13 9,286  0.14 %
#>  7 05 Oct    11 9,023  0.12 %
#>  8 04 Oct    12 11,994 0.10 %
#>  9 03 Oct     6 11,281 0.05 %
#> 10 02 Oct     8 12,550 0.06 %
#> # … with 193 more rows

All together now:

vic_test_url <- "https://covidlive.com.au/report/daily-positive-test-rate/vic"

vic_test_data_raw <- bow(vic_test_url) %>% 
  scrape() %>% 
  html_table() %>% 
  purrr::pluck(2) %>% 
  as_tibble()

vic_test_data_raw

#> # A tibble: 203 x 4
#>    DATE   CASES TESTS  POS   
#>    <chr>  <int> <chr>  <chr> 
#>  1 11 Oct    12 12,925 0.09 %
#>  2 10 Oct    12 16,647 0.07 %
#>  3 09 Oct    10 15,585 0.06 %
#>  4 08 Oct    10 15,298 0.07 %
#>  5 07 Oct     4 16,429 0.02 %
#>  6 06 Oct    13 9,286  0.14 %
#>  7 05 Oct    11 9,023  0.12 %
#>  8 04 Oct    12 11,994 0.10 %
#>  9 03 Oct     6 11,281 0.05 %
#> 10 02 Oct     8 12,550 0.06 %
#> # … with 193 more rows
…
#> [1] "2020-10-05"

strp_date("05 Oct") %>% class()

#> [1] "Date"

Ugh, dates.

OK, so now let’s clean up the dates.

vic_test_data_raw %>% 
  mutate(DATE = strp_date(DATE))

#> # A tibble: 203 x 4
#>    DATE       CASES TESTS  POS   
#>    <date>     <int> <chr>  <chr> 
#>  1 2020-10-11    12 12,925 0.09 %
#>  2 2020-10-10    12 16,647 0.07 %
#>  3 2020-10-09    10 15,585 0.06 %
#>  4 2020-10-08    10 15,298 0.07 %
#>  5 2020-10-07     4 16,429 0.02 %
#>  6 2020-10-06    13 9,286  0.14 %
#>  7 2020-10-05    11 9,023  0.12 %
#>  8 2020-10-04    12 11,994 0.10 %
#>  9 2020-10-03     6 11,281 0.05 %
#> 10 2020-10-02     8 12,550 0.06 %
#> # … with 193 more rows

And let’s use parse_number to convert TESTS and POS into numbers, as they have commas in them and % signs, so R registers them as character strings.

vic_test_data_raw %>% 
  mutate(DATE = strp_date(DATE),
         TESTS = parse_number(TESTS),
         POS = parse_number(POS))

#> # A tibble: 203 x 4
#>    DATE       CASES TESTS   POS
#>    <date>     <int> <dbl> <dbl>
#>  1 2020-10-11    12 12925  0.09
#>  2 2020-10-10    12 16647  0.07
#>  3 2020-10-09    10 15585  0.06
#>  4 2020-10-08    10 15298  0.07
#>  5 2020-10-07     4 16429  0.02
#>  6 2020-10-06    13  9286  0.14
#>  7 2020-10-05    11  9023  0.12
#>  8 2020-10-04    12 11994  0.1 
#>  9 2020-10-03     6 11281  0.05
#> 10 2020-10-02     8 12550  0.06
#> # … with 193 more rows

parse_number() (from readr) is one of my favourite little functions, as this saves me a ton of effort.

Now let’s use clean_names() function from janitor to make the names all lower case, making them a bit nicer to deal with. (I don’t like holding down shift to type all caps for long periods of time, unless I’ve got something exciting to celebrate or scream).

vic_test_data_raw %>% 
  mutate(DATE = strp_date(DATE),
         TESTS = parse_number(TESTS),
         POS = parse_number(POS)) %>% 
  janitor::clean_names() 

#> # A tibble: 203 x 4
#>    date       cases tests   pos
#>    <date>     <int> <dbl> <dbl>
#>  1 2020-10-11    12 12925  0.09
#>  2 2020-10-10    12 16647  0.07
#>  3 2020-10-09    10 15585  0.06
#>  4 2020-10-08    10 15298  0.07
#>  5 2020-10-07     4 16429  0.02
#>  6 2020-10-06    13  9286  0.14
#>  7 2020-10-05    11  9023  0.12
#>  8 2020-10-04    12 11994  0.1 
#>  9 2020-10-03     6 11281  0.05
#> 10 2020-10-02     8 12550  0.06
#> # … with 193 more rows
…
