Find Out How many Times Faster your Code is – Credibly Curious
…
my_n_miss(airquality)
#> # A tibble: 153 × 7
#>    Ozone Solar.R  Wind  Temp Month   Day n_miss
#>    <int>   <int> <dbl> <int> <int> <int>  <int>
#>  1    41     190   7.4    67     5     1      0
#>  2    36     118   8      72     5     2      0
#>  3    12     149  12.6    74     5     3      0
#>  4    18     313  11.5    62     5     4      0
#>  5    NA      NA  14.3    56     5     5      2
#>  6    28      NA  14.9    66     5     6      1
#>  7    23     299   8.6    65     5     7      0
#>  8    19      99  13.8    59     5     8      0
#>  9     8      19  20.1    61     5     9      0
#> 10    NA     194   8.6    69     5    10      1
#> # ℹ 143 more rows

But we can speed this up using rowSums() instead:

new_n_miss <- function(data){
  n_misses <- rowSums(is.na(data))
  data |> 
  mutate(
    n_miss = n_misses
  ) |> 
    as_tibble()
}

new_n_miss(airquality)
#> # A tibble: 153 × 7
#>    Ozone Solar.R  Wind  Temp Month   Day n_miss
#>    <int>   <int> <dbl> <int> <int> <int>  <dbl>
#>  1    41     190   7.4    67     5     1      0
#>  2    36     118   8      72     5     2      0
#>  3    12     149  12.6    74     5     3      0
#>  4    18     313  11.5    62     5     4      0
#>  5    NA      NA  14.3    56     5     5      2
#>  6    28      NA  14.9    66     5     6      1
#>  7    23     299   8.6    65     5     7      0
#>  8    19      99  13.8    59     5     8      0
#>  9     8      19  20.1    61     5     9      0
#> 10    NA     194   8.6    69     5    10      1
#> # ℹ 143 more rows
my_n_miss(airquality)
#> # A tibble: 153 × 7
#>    Ozone Solar.R  Wind  Temp Month   Day n_miss
#>    <int>   <int> <dbl> <int> <int> <int>  <int>
#>  1    41     190   7.4    67     5     1      0
#>  2    36     118   8      72     5     2      0
#>  3    12     149  12.6    74     5     3      0
#>  4    18     313  11.5    62     5     4      0
#>  5    NA      NA  14.3    56     5     5      2
#>  6    28      NA  14.9    66     5     6      1
#>  7    23     299   8.6    65     5     7      0
#>  8    19      99  13.8    59     5     8      0
#>  9     8      19  20.1    61     5     9      0
#> 10    NA     194   8.6    69     5    10      1
#> # ℹ 143 more rows
…
This is a similar story to Josiah’s, where he used Rust code to get it faster, but then there was a faster way just staying within R.

Sometimes, you don’t need extra C or Fortran or Rust. R is enough!

And if you want to be able to compare the speeds of things, don’t forget the relative = TRUE argument in summary when using bench::mark.

Other packages for microbenchmarking

bench isn’t the only way to measure things! Other ones I’ve enjoyed using in the past are microbenchmark and tictoc. I’ve particularly enjoyed tictoc because you get to do this:

library(tictoc)
tic()
new_n_miss(airquality)
#> # A tibble: 153 × 7
#>    Ozone Solar.R  Wind  Temp Month   Day n_miss
#>    <int>   <int> <dbl> <int> <int> <int>  <dbl>
#>  1    41     190   7.4    67     5     1      0
#>  2    36     118   8      72     5     2      0
#>  3    12     149  12.6    74     5     3      0
#>  4    18     313  11.5    62     5     4      0
#>  5    NA      NA  14.3    56     5     5      2
#>  6    28      NA  14.9    66     5     6      1
#>  7    23     299   8.6    65     5     7      0
#>  8    19      99  13.8    59     5     8      0
#>  9     8      19  20.1    61     5     9      0
#> 10    NA     194   8.6    69     5    10      1
#> # ℹ 143 more rows
…
