Rolling Averages with {slider} and Covid Data – Credibly Curious
…
strp_date <- function(x) as.Date(strptime(x, format = "%d %b"))

daily_cases <- covidlive_raw %>% 
  mutate(DATE = strp_date(DATE),
         CASES = parse_number(CASES),
         NET = suppressWarnings(parse_number(NET))) %>% 
  clean_names() %>% 
  select(-var,
         -cases) %>% 
  rename(cases = net) %>% 
  select(date, cases)

daily_cases

#> # A tibble: 272 x 2
#>    date       cases
#>    <date>     <dbl>
#>  1 2020-10-22    NA
#>  2 2020-10-21     3
#>  3 2020-10-20     1
#>  4 2020-10-19     4
#>  5 2020-10-18    -2
#>  6 2020-10-17     0
#>  7 2020-10-16     2
#>  8 2020-10-15     4
#>  9 2020-10-14     6
#> 10 2020-10-13    10
#> # … with 262 more rows
…
covid_rolls <- daily_ts %>% 
  filter_index("2020-10-01" ~ .) %>% 
  mutate(`7 day avg` = slide_index_dbl(.i = date,
                                .x = cases,
                                .f = mean,
                                .before = 6),
         `14 day avg` = slide_index_dbl(.i = date,
                                   .x = cases,
                                   .f = mean,
                                   .before = 13))

covid_rolls

#> # A tsibble: 22 x 4 [1D]
#>    date       cases `7 day avg` `14 day avg`
#>    <date>     <dbl>       <dbl>        <dbl>
#>  1 2020-10-01    14       14           14   
#>  2 2020-10-02     8       11           11   
#>  3 2020-10-03     6        9.33         9.33
#>  4 2020-10-04    12       10           10   
#>  5 2020-10-05    11       10.2         10.2 
#>  6 2020-10-06    13       10.7         10.7 
#>  7 2020-10-07     4        9.71         9.71
#>  8 2020-10-08    10        9.14         9.75
#>  9 2020-10-09    10        9.43         9.78
#> 10 2020-10-10    12       10.3         10   
#> # … with 12 more rows

We convert this into long form for easier plotting

covid_rolls_long <- covid_rolls %>% 
  pivot_longer(cols = 3:4,
               names_to = "roll_type",
               values_to = "value")
covid_rolls_long

#> # A tsibble: 44 x 4 [1D]
#> # Key:       roll_type [2]
#>    date       cases roll_type  value
#>    <date>     <dbl> <chr>      <dbl>
#>  1 2020-10-01    14 7 day avg  14   
#>  2 2020-10-01    14 14 day avg 14   
#>  3 2020-10-02     8 7 day avg  11   
#>  4 2020-10-02     8 14 day avg 11   
#>  5 2020-10-03     6 7 day avg   9.33
#>  6 2020-10-03     6 14 day avg  9.33
#>  7 2020-10-04    12 7 day avg  10   
#>  8 2020-10-04    12 14 day avg 10   
#>  9 2020-10-05    11 7 day avg  10.2 
#> 10 2020-10-05    11 14 day avg 10.2 
#> # … with 34 more rows
…
