naniar Version 1.0.0 – Credibly Curious
…
Or add missingness to a few variables:

mtcars_miss_some <- mtcars_df %>% 
  mutate(
    across(
      c(mpg, cyl, disp),
      \(x) set_prop_miss(x, 0.5)
    )
  )

mtcars_miss_some
#> # A tibble: 32 × 11
#>      mpg   cyl  disp    hp  drat    wt  qsec    vs    am  gear  carb
#>    <dbl> <dbl> <dbl> <dbl> <dbl> <dbl> <dbl> <dbl> <dbl> <dbl> <dbl>
#>  1  NA      NA   NA    110  3.9   2.62  16.5     0     1     4     4
#>  2  21      NA   NA    110  3.9   2.88  17.0     0     1     4     4
#>  3  22.8     4  108     93  3.85  2.32  18.6     1     1     4     1
#>  4  21.4    NA  258    110  3.08  3.22  19.4     1     0     3     1
#>  5  NA      NA   NA    175  3.15  3.44  17.0     0     0     3     2
#>  6  18.1     6   NA    105  2.76  3.46  20.2     1     0     3     1
#>  7  14.3     8   NA    245  3.21  3.57  15.8     0     0     3     4
#>  8  NA      NA  147.    62  3.69  3.19  20       1     0     4     2
#>  9  22.8    NA  141.    95  3.92  3.15  22.9     1     0     4     2
#> 10  19.2     6   NA    123  3.92  3.44  18.3     1     0     4     4
#> # … with 22 more rows
…
Or you can add missingness to all variables like so:

mtcars_miss_all <- mtcars_df %>% 
  mutate(
    across(
      everything(),
      \(x) set_prop_miss(x, 0.5)
    )
  )

mtcars_miss_all
#> # A tibble: 32 × 11
#>      mpg   cyl  disp    hp  drat    wt  qsec    vs    am  gear  carb
#>    <dbl> <dbl> <dbl> <dbl> <dbl> <dbl> <dbl> <dbl> <dbl> <dbl> <dbl>
#>  1  NA      NA  160    110  3.9   2.62  16.5    NA    NA     4    NA
#>  2  21      NA   NA    110  3.9   2.88  17.0     0     1    NA    NA
#>  3  22.8     4   NA     NA NA    NA     18.6     1    NA     4    NA
#>  4  NA      NA   NA    110 NA    NA     19.4    NA    NA    NA     1
#>  5  NA       8   NA     NA NA     3.44  NA      NA    NA     3     2
#>  6  18.1     6  225     NA NA    NA     20.2     1     0     3     1
#>  7  NA      NA   NA     NA  3.21  3.57  NA       0    NA    NA     4
#>  8  24.4    NA  147.    NA  3.69  3.19  20      NA    NA     4     2
#>  9  NA       4  141.    95  3.92  3.15  22.9    NA     0    NA    NA
#> 10  NA      NA  168.   123  3.92 NA     NA      NA     0     4     4
#> # … with 22 more rows
…
