Tidyverse Case Study: Exploring the Billboard Charts – Credibly Curious
…
vis_dat gives you a birds eye view of the data, showing the class of each variable, and also displays missing data (if there is any). In this case, we can see that there is no missing data, and that everything is a character.

I would expect year and rank (marked as “no”) to be numbers, not characters, so let’s have a closer look at these.

But first, let’s convert it to a tibble, which, among other things, is basically the same as a normal data.frame, but gives a nice print method, so it only shows the first 10 rows by default, and gives some text describing the data type.

billboard_raw <- as_tibble(wiki_hot_100s)
billboard_raw

## # A tibble: 5,701 x 4
##    no    title                     artist              year 
##    <chr> <chr>                     <chr>               <chr>
##  1 1     Theme from A Summer Place Percy Faith         1960 
##  2 2     He'll Have to Go          Jim Reeves          1960 
##  3 3     Cathy's Clown             The Everly Brothers 1960 
##  4 4     Running Bear              Johnny Preston      1960 
##  5 5     Teen Angel                Mark Dinning        1960 
##  6 6     I'm Sorry                 Brenda Lee          1960 
##  7 7     It's Now or Never         Elvis Presley       1960 
##  8 8     Handy Man                 Jimmy Jones         1960 
##  9 9     Stuck on You              Elvis Presley       1960 
## 10 10    The Twist                 Chubby Checker      1960 
## # ... with 5,691 more rows

This is nice because it means you don’t have to consciously think about what might happen when you want to view the data - it doesn’t just vomit out the ENTIRE dataframe when you type wiki_hot_100s.

OK, so we can see that no and year are characters, but really they should be numeric, as they aren’t written as “Number One” and “Nineteen Sixty”, so let’s coerce them into numbers with as.numeric. We also create another variable, rank, which is a more descriptive word than no.

billboard_raw %>%
  mutate(rank = as.numeric(no),
         year = as.numeric(year))

## Warning in evalq(as.numeric(no), <environment>): NAs introduced by coercion

## # A tibble: 5,701 x 5
##    no    title                     artist               year  rank
##    <chr> <chr>                     <chr>               <dbl> <dbl>
##  1 1     Theme from A Summer Place Percy Faith          1960  1.00
##  2 2     He'll Have to Go          Jim Reeves           1960  2.00
##  3 3     Cathy's Clown             The Everly Brothers  1960  3.00
##  4 4     Running Bear              Johnny Preston       1960  4.00
##  5 5     Teen Angel                Mark Dinning         1960  5.00
##  6 6     I'm Sorry                 Brenda Lee           1960  6.00
##  7 7     It's Now or Never         Elvis Presley        1960  7.00
##  8 8     Handy Man                 Jimmy Jones          1960  8.00
##  9 9     Stuck on You              Elvis Presley        1960  9.00
## 10 10    The Twist                 Chubby Checker       1960 10.0 
## # ... with 5,691 more rows
…
Note: This is a common pattern that I like to use - build up chains of commands with the magrittr pipe operator until you are confident that they work. Then, you combine them together to create an object. This saves you creating intermediate objects like “data_1”, “data_check_lag”, “data_insert_lag_lead”, etc.

So now we’ve got a clean dataset, let’s think about something interesting to look at in this cool dataset!

One hit wonders

Let’s look at the one hit wonders in this list.

We first add the count, which creates a count of the number of times that each artist appears, and adds it back onto the dataset as a column. It saves doing some fandangling with joins, and was suggested by David Robinson in yet another awesome Rstats moment / design decision being made on twitter.

billboard_clean %>%
  add_count(artist)

## # A tibble: 5,701 x 5
##     rank title                     artist               year     n
##    <dbl> <chr>                     <chr>               <dbl> <int>
##  1  1.00 Theme from A Summer Place Percy Faith          1960     1
##  2  2.00 He'll Have to Go          Jim Reeves           1960     1
##  3  3.00 Cathy's Clown             The Everly Brothers  1960     6
##  4  4.00 Running Bear              Johnny Preston       1960     2
##  5  5.00 Teen Angel                Mark Dinning         1960     1
##  6  6.00 I'm Sorry                 Brenda Lee           1960    11
##  7  7.00 It's Now or Never         Elvis Presley        1960    16
##  8  8.00 Handy Man                 Jimmy Jones          1960     2
##  9  9.00 Stuck on You              Elvis Presley        1960    16
## 10 10.0  The Twist                 Chubby Checker       1960     5
## # ... with 5,691 more rows
…
OK, so not surprising that this is the Beatles, but I swear that they have more than one number 1 hit, based on me growing up listening to their “1” Album.. But looking closely, this is a combination of number one hits in the USA and UK across various lists, whereas this dataset is just for “billboard”.

Artists who appear in the top 100 multiple times

OK, so, I’m still a bit shocked by the fact that they Beatles only have one number one, how many times do they appear in the list?

billboard_clean %>%
  filter(artist == "The Beatles")

## # A tibble: 26 x 4
##     rank title                        artist       year
##    <dbl> <chr>                        <chr>       <dbl>
##  1  1.00 I Want to Hold Your Hand     The Beatles  1964
##  2  2.00 She Loves You                The Beatles  1964
##  3 13.0  A Hard Day's Night           The Beatles  1964
##  4 14.0  Love Me Do                   The Beatles  1964
##  5 16.0  Please Please Me             The Beatles  1964
##  6 40.0  Twist and Shout              The Beatles  1964
##  7 52.0  Can't Buy Me Love            The Beatles  1964
##  8 55.0  Do You Want to Know a Secret The Beatles  1964
##  9 95.0  I Saw Her Standing There     The Beatles  1964
## 10  7.00 Help!                        The Beatles  1965
## # ... with 16 more rows

26 times!

That seems like a lot. Is it the most?

Let’s start by looking at the number of times each artist appears in the top 100, by grouping by artist and then using n() to count the number of artists, then arranging by the number of times that they appear.

billboard_clean %>%
  group_by(artist) %>%
  summarise(n_times_in_100 = n()) %>%
  arrange(-n_times_in_100)

## # A tibble: 2,768 x 2
##    artist          n_times_in_100
##    <chr>                    <int>
##  1 Madonna                     35
##  2 Elton John                  26
##  3 The Beatles                 26
##  4 Janet Jackson               24
##  5 Mariah Carey                24
##  6 Michael Jackson             22
##  7 Stevie Wonder               22
##  8 Rihanna                     20
##  9 Taylor Swift                20
## 10 Whitney Houston             19
## # ... with 2,758 more rows
…
An artist’s rise to fame

Let’s see if we can view their rise to fame. We can keep a count of the number of times that an artist appeared in the top 100.

We then want to get a tally of the number of times that each artist appears. We can do this by grouping by the artist, arranging by artist and then year, and then creating a new variable that counts up from 1 to the number of times that artist appears. We also just chuck in a filter there to see what happens for just Madonna.

billboard_clean %>% 
  # add a grouping category for the growth
  arrange(artist,year) %>%
  group_by(artist) %>%
  mutate(rank_tally = 1:n()) %>%
  ungroup() %>%
  filter(artist == "Madonna")

## # A tibble: 35 x 5
##     rank title             artist   year rank_tally
##    <dbl> <chr>             <chr>   <dbl>      <int>
##  1 35.0  Borderline        Madonna  1984          1
##  2 66.0  Lucky Star        Madonna  1984          2
##  3 79.0  Holiday           Madonna  1984          3
##  4  2.00 Like a Virgin     Madonna  1985          4
##  5  9.00 Crazy for You     Madonna  1985          5
##  6 58.0  Material Girl     Madonna  1985          6
##  7 81.0  Angel             Madonna  1985          7
##  8 98.0  Dress You Up      Madonna  1985          8
##  9 29.0  Papa Don't Preach Madonna  1986          9
## 10 35.0  Live to Tell      Madonna  1986         10
## # ... with 25 more rows
…
